<?xml version="1.0" standalone="no"?>
<!DOCTYPE svg PUBLIC "-//W3C//DTD SVG 20010904//EN"
 "http://www.w3.org/TR/2001/REC-SVG-20010904/DTD/svg10.dtd">
<svg version="1.0" xmlns="http://www.w3.org/2000/svg"
 width="791.000000pt" height="791.000000pt" viewBox="0 0 791.000000 791.000000"
 preserveAspectRatio="xMidYMid meet">
<metadata>
Created by potrace 1.11, written by Peter Selinger 2001-2013
</metadata>
<g transform="translate(0.000000,791.000000) scale(0.100000,-0.100000)"
fill="#000000" stroke="none">
<path d="M301 6440 c-132 -35 -213 -96 -263 -198 l-33 -67 0 -2195 c0 -1854 2
-2203 14 -2243 24 -81 83 -162 151 -206 106 -69 129 -71 715 -71 l516 0 -77
40 c-316 163 -520 476 -628 960 -97 440 -100 1102 -6 1573 73 361 202 630 398
830 214 217 473 321 839 334 343 13 649 -63 857 -211 115 -82 245 -232 330
-379 15 -27 28 -47 29 -45 1 2 1 429 -1 951 l-2 947 -1383 -1 c-1334 0 -1385
-1 -1456 -19z"/>
<path d="M3760 4082 c0 -1309 3 -2434 7 -2500 l6 -122 178 0 177 0 7 48 c3 26
9 1151 11 2500 l5 2452 -195 0 -196 0 0 -2378z"/>
<path d="M4760 5508 l0 -953 49 82 c180 303 429 473 787 538 125 23 385 31
513 16 707 -83 1087 -604 1162 -1591 17 -225 6 -691 -21 -890 -84 -629 -296
-1010 -674 -1212 l-71 -38 535 3 c526 2 536 3 594 25 122 46 197 109 240 201
l21 46 3 2195 c2 2176 2 2196 -18 2260 -35 114 -111 195 -229 242 l-56 23
-1417 3 -1418 2 0 -952z"/>
<path d="M1935 4724 c-448 -100 -643 -493 -662 -1334 -16 -712 91 -1159 328
-1374 154 -139 392 -204 653 -177 524 53 771 353 863 1050 24 184 24 666 0
854 -74 568 -279 863 -672 968 -108 29 -404 36 -510 13z"/>
<path d="M5565 4733 c-477 -75 -718 -402 -785 -1068 -15 -141 -15 -557 0 -700
73 -735 329 -1071 857 -1125 213 -22 406 12 562 99 65 36 175 144 221 216 85
135 140 311 182 575 20 133 22 179 22 545 1 331 -2 421 -17 525 -35 245 -86
423 -160 565 -56 107 -183 236 -282 287 -126 65 -197 80 -395 83 -96 2 -188 1
-205 -2z"/>
<path d="M3119 1978 c-104 -206 -276 -385 -464 -483 l-66 -35 297 0 297 0 -6
53 c-4 28 -11 153 -18 277 -6 124 -12 227 -14 228 -2 2 -13 -16 -26 -40z"/>
<path d="M4750 1943 c0 -88 -17 -389 -25 -445 l-5 -38 297 0 298 1 -81 42
c-95 50 -194 127 -265 205 -58 65 -146 195 -180 265 -13 26 -27 47 -31 47 -4
0 -8 -35 -8 -77z"/>
</g>
</svg>
